[{"page":1,"total_results":10000,"total_pages":500,"results":{"popularity":2498.29,"vote_count":28,"video":false,"canal_path":"https://schedulesdirect-api20141201.s3.us-east-1.amazonaws.com/assets/stationLogos/s24519_dark_360w_270h.png","canal":XHDF(AztecaUno),"adult":false,"backdrop_path":"\/86L8wqGMDbwURPni2t7FQ0nDjsH.jpg","reproducir":"http://regioflix.club/Sr_Regio20/tp.php?c=146&p=3&k=srregio&f=.m3u8","original_title":"Hard Kill","genre_ids":[28,53],"title":"Hard Kill","vote_average":4.2,"overview":"The work of billionaire tech CEO Donovan Chalmers is so valuable that he hires mercenaries to protect it, and a terrorist group kidnaps his daughter just to get it.","release_date":"2020-10-23"}}]
[{"place_id":155600229,"licence":"Data © OpenStreetMap contributors, ODbL 1.0. https://osm.org/copyright","osm_type":"way","osm_id":294103600,"boundingbox":["22.7701254","22.7717812","-102.580374","-102.5796975"],"lat":"22.7706441","lon":"-102.5803221","display_name":"Romero de Terreros, Zacatecas, Municipio de Zacatecas, Zacatecas, 98050, México","place_rank":26,"category":"highway","type":"residential","importance":0.001,"address":{"road":"Romero de Terreros","city":"Zacatecas","county":"Municipio de Zacatecas","state":"Zacatecas","postcode":"98050","country":"México","country_code":"mx"}}]
